[gd_scene load_steps=7 format=2]

[ext_resource path="res://assets/shaders/glitch.shader" type="Shader" id=1]
[ext_resource path="res://assets/graphics/glitch.png" type="Texture" id=2]
[ext_resource path="res://assets/scripts/explosion.gd" type="Script" id=3]

[sub_resource type="ShaderMaterial" id=1]
shader = ExtResource( 1 )
shader_param/dispAmt = 0.01
shader_param/abX = 0.05
shader_param/abY = 0.05
shader_param/disp_size = 0.5
shader_param/displace = ExtResource( 2 )

[sub_resource type="CircleShape2D" id=2]

[sub_resource type="Animation" id=3]
step = 0.05
tracks/0/type = "value"
tracks/0/path = NodePath(".:modulate")
tracks/0/interp = 2
tracks/0/loop_wrap = true
tracks/0/imported = false
tracks/0/enabled = true
tracks/0/keys = {
"times": PoolRealArray( 0, 0.05, 0.1, 0.15, 0.2, 0.25, 0.3, 1 ),
"transitions": PoolRealArray( 1, 1, 1, 1, 1, 1, 1, 5.46416 ),
"update": 0,
"values": [ Color( 5, 5, 5, 1 ), Color( 0, 0, 0, 1 ), Color( 3, 3, 3, 1 ), Color( 0, 0, 0, 1 ), Color( 3, 3, 3, 1 ), Color( 0, 0, 0, 1 ), Color( 3, 3, 3, 1 ), Color( 5, 5, 5, 0 ) ]
}
tracks/1/type = "value"
tracks/1/path = NodePath(".:scale")
tracks/1/interp = 2
tracks/1/loop_wrap = true
tracks/1/imported = false
tracks/1/enabled = true
tracks/1/keys = {
"times": PoolRealArray( 0, 0.6, 1 ),
"transitions": PoolRealArray( 1, 1, 13.9288 ),
"update": 0,
"values": [ Vector2( 1, 1 ), Vector2( 1, 1 ), Vector2( 1e-05, 1e-05 ) ]
}

[node name="explode" type="Area2D"]
modulate = Color( 5, 5, 5, 1 )
material = SubResource( 1 )
z_index = 5
collision_layer = 18
collision_mask = 18
script = ExtResource( 3 )

[node name="col" type="CollisionShape2D" parent="."]
shape = SubResource( 2 )

[node name="anim" type="AnimationPlayer" parent="."]
anims/def = SubResource( 3 )

[node name="tw" type="Tween" parent="."]
[connection signal="area_entered" from="." to="." method="_on_explode_area_entered"]
[connection signal="body_entered" from="." to="." method="_on_explode_body_entered"]
[connection signal="tween_all_completed" from="tw" to="." method="_on_tw_tween_all_completed"]
