[gd_scene load_steps=3 format=2]

[ext_resource path="res://assets/scripts/laser.gd" type="Script" id=1]
[ext_resource path="res://assets/graphics/light_bullet.png" type="Texture" id=2]

[node name="laser_bullet" type="Line2D"]
points = PoolVector2Array( 0, 0, 0, 0 )
width = 5.0
default_color = Color( 1, 1, 0.662745, 1 )
texture_mode = 1313163520
script = ExtResource( 1 )

[node name="light" type="Light2D" parent="."]
scale = Vector2( 1, 0.2 )
texture = ExtResource( 2 )
energy = 1.1
