{
    "id" : 11,
    "name" : "Builder",
    "desc" : "A test module",
    "type" : "weapon",
    "pric" : [300],
    "conf" : [10],
    "vals" : {
        "all" : {
            "+weight" : 5
        }	
    }
}
