{
    "id" : 13,
    "name" : "Laser Upgrade",
    "desc" : "A test module",
    "type" : "weapon",
    "pric" : [400,400,400,400,400],
    "conf" : [10,11,12,20],
    "prir" : 0,
    "vals" : {
        "laser" : {
            "init" : null,
            "dmg_init" : [1.3,1.9,2.5,3.1,3.7],
            "shield_dmg" : [3,4,5,6,7],
        },
        "all" : {
            "+weight" : 6
        }
    }
}
